{
    "name": "Controls",
    "maps": [
        {
            "name": "Camera",
            "id": "d6861d49-5e32-40d1-b0a4-af76a4d313f9",
            "actions": [
                {
                    "name": "Movement",
                    "type": "Value",
                    "id": "decb553f-905c-40c8-bbe9-51db0044d9eb",
                    "expectedControlType": "Vector3",
                    "processors": "",
                    "interactions": "",
                    "initialStateCheck": true
                },
                {
                    "name": "Rotation",
                    "type": "Value",
                    "id": "702642a4-9a33-41a7-b936-0acd9f82bef4",
                    "expectedControlType": "Vector2",
                    "processors": "",
                    "interactions": "",
                    "initialStateCheck": true
                }
            ],
            "bindings": [
                {
                    "name": "3D Vector",
                    "id": "991c6530-f90c-410b-afa6-e8bec26b2ea7",
                    "path": "3DVector",
                    "interactions": "",
                    "processors": "",
                    "groups": "",
                    "action": "Movement",
                    "isComposite": true,
                    "isPartOfComposite": false
                },
                {
                    "name": "up",
                    "id": "7fb2eea4-5f62-4d62-87a6-110de9245c31",
                    "path": "<Keyboard>/e",
                    "interactions": "",
                    "processors": "",
                    "groups": "",
                    "action": "Movement",
                    "isComposite": false,
                    "isPartOfComposite": true
                },
                {
                    "name": "down",
                    "id": "2fd1af0b-8418-432f-84b9-de50e9a8579c",
                    "path": "<Keyboard>/q",
                    "interactions": "",
                    "processors": "",
                    "groups": "",
                    "action": "Movement",
                    "isComposite": false,
                    "isPartOfComposite": true
                },
                {
                    "name": "left",
                    "id": "d6f7a04b-edc7-40ba-bed4-a73918a6c702",
                    "path": "<Keyboard>/a",
                    "interactions": "",
                    "processors": "",
                    "groups": "",
                    "action": "Movement",
                    "isComposite": false,
                    "isPartOfComposite": true
                },
                {
                    "name": "right",
                    "id": "d0759925-3ef4-4696-b0e4-2b0f565a446e",
                    "path": "<Keyboard>/d",
                    "interactions": "",
                    "processors": "",
                    "groups": "",
                    "action": "Movement",
                    "isComposite": false,
                    "isPartOfComposite": true
                },
                {
                    "name": "forward",
                    "id": "b2931cc7-e163-4c04-ba07-1e119e709e54",
                    "path": "<Keyboard>/w",
                    "interactions": "",
                    "processors": "",
                    "groups": "",
                    "action": "Movement",
                    "isComposite": false,
                    "isPartOfComposite": true
                },
                {
                    "name": "backward",
                    "id": "33f48719-3619-48c6-acec-6d356cb1758f",
                    "path": "<Keyboard>/s",
                    "interactions": "",
                    "processors": "",
                    "groups": "",
                    "action": "Movement",
                    "isComposite": false,
                    "isPartOfComposite": true
                },
                {
                    "name": "",
                    "id": "ed5dfaf0-42b1-4a10-b13d-b48a2ccdc011",
                    "path": "<Mouse>/delta",
                    "interactions": "",
                    "processors": "",
                    "groups": " MouseAndKeyboard",
                    "action": "Rotation",
                    "isComposite": false,
                    "isPartOfComposite": false
                }
            ]
        },
        {
            "name": "Player",
            "id": "fd79f2cd-2a2b-45f4-94ff-6133c11aeeef",
            "actions": [
                {
                    "name": "Use",
                    "type": "Button",
                    "id": "2fc9b313-ea6c-49b3-af40-2488a6c234d8",
                    "expectedControlType": "Button",
                    "processors": "",
                    "interactions": "",
                    "initialStateCheck": false
                },
                {
                    "name": "MousePosition",
                    "type": "Value",
                    "id": "8c8fe2bc-9919-46b8-ae6f-14fdfc21fc08",
                    "expectedControlType": "Vector2",
                    "processors": "",
                    "interactions": "",
                    "initialStateCheck": true
                },
                {
                    "name": "Submit",
                    "type": "Button",
                    "id": "a34fce05-fdf9-41cf-a216-1a358fb164be",
                    "expectedControlType": "Button",
                    "processors": "",
                    "interactions": "",
                    "initialStateCheck": false
                },
                {
                    "name": "Cancel",
                    "type": "Button",
                    "id": "508e6bb4-08f3-4c62-85fa-b9b51fffc6fb",
                    "expectedControlType": "Button",
                    "processors": "",
                    "interactions": "",
                    "initialStateCheck": false
                }
            ],
            "bindings": [
                {
                    "name": "",
                    "id": "4279f7e5-8af0-4b62-a2c9-7d28cfa9e819",
                    "path": "<Mouse>/leftButton",
                    "interactions": "",
                    "processors": "",
                    "groups": " MouseAndKeyboard",
                    "action": "Use",
                    "isComposite": false,
                    "isPartOfComposite": false
                },
                {
                    "name": "",
                    "id": "c6d646ce-b94f-4082-a81a-158b38bf8c83",
                    "path": "<Touchscreen>/Press",
                    "interactions": "",
                    "processors": "",
                    "groups": "Touch",
                    "action": "Use",
                    "isComposite": false,
                    "isPartOfComposite": false
                },
                {
                    "name": "",
                    "id": "ffa871fd-abbf-4ddf-82fb-7f7f05c60b6a",
                    "path": "<Mouse>/position",
                    "interactions": "",
                    "processors": "",
                    "groups": " MouseAndKeyboard",
                    "action": "MousePosition",
                    "isComposite": false,
                    "isPartOfComposite": false
                },
                {
                    "name": "",
                    "id": "8fb1a7a4-83d9-42d4-ba14-c9d981a58b1d",
                    "path": "<Touchscreen>/position",
                    "interactions": "",
                    "processors": "",
                    "groups": "Touch",
                    "action": "MousePosition",
                    "isComposite": false,
                    "isPartOfComposite": false
                },
                {
                    "name": "",
                    "id": "de7e57f9-e763-4310-a508-f979adc9c54d",
                    "path": "<Keyboard>/enter",
                    "interactions": "",
                    "processors": "",
                    "groups": " MouseAndKeyboard",
                    "action": "Submit",
                    "isComposite": false,
                    "isPartOfComposite": false
                },
                {
                    "name": "",
                    "id": "c1a66cd8-8028-4eeb-8a26-54666c6b49c1",
                    "path": "<Keyboard>/escape",
                    "interactions": "",
                    "processors": "",
                    "groups": " MouseAndKeyboard",
                    "action": "Cancel",
                    "isComposite": false,
                    "isPartOfComposite": false
                },
                {
                    "name": "",
                    "id": "60e1a878-533e-46a3-a131-74f1768b7308",
                    "path": "<Keyboard>/p",
                    "interactions": "",
                    "processors": "",
                    "groups": " MouseAndKeyboard",
                    "action": "Cancel",
                    "isComposite": false,
                    "isPartOfComposite": false
                }
            ]
        },
        {
            "name": "Inventory",
            "id": "9351b88e-edaf-414f-ac6f-81f00733c094",
            "actions": [
                {
                    "name": "Next",
                    "type": "Button",
                    "id": "378df782-5cca-43bf-8273-877ee7cb9f94",
                    "expectedControlType": "Button",
                    "processors": "",
                    "interactions": "",
                    "initialStateCheck": false
                },
                {
                    "name": "Previous",
                    "type": "Button",
                    "id": "4f032327-4d14-4f67-a04c-e8948b57bcc8",
                    "expectedControlType": "Button",
                    "processors": "",
                    "interactions": "",
                    "initialStateCheck": false
                }
            ],
            "bindings": [
                {
                    "name": "",
                    "id": "914d2836-c9ec-442b-8691-4333f99bcdfd",
                    "path": "<Keyboard>/x",
                    "interactions": "",
                    "processors": "",
                    "groups": "",
                    "action": "Next",
                    "isComposite": false,
                    "isPartOfComposite": false
                },
                {
                    "name": "",
                    "id": "24a57a0c-b7c8-42e4-b9b9-3dc6fc93d79c",
                    "path": "<Keyboard>/z",
                    "interactions": "",
                    "processors": "",
                    "groups": "",
                    "action": "Previous",
                    "isComposite": false,
                    "isPartOfComposite": false
                }
            ]
        }
    ],
    "controlSchemes": [
        {
            "name": " MouseAndKeyboard",
            "bindingGroup": " MouseAndKeyboard",
            "devices": [
                {
                    "devicePath": "<Mouse>",
                    "isOptional": false,
                    "isOR": false
                },
                {
                    "devicePath": "<Keyboard>",
                    "isOptional": false,
                    "isOR": false
                }
            ]
        },
        {
            "name": "Touch",
            "bindingGroup": "Touch",
            "devices": [
                {
                    "devicePath": "<Touchscreen>",
                    "isOptional": false,
                    "isOR": false
                }
            ]
        }
    ]
}