%YAML 1.1
%TAG !u! tag:unity3d.com,2011:
--- !u!162 &1
EditorUserSettings:
  m_ObjectHideFlags: 0
  serializedVersion: 4
  m_ConfigSettings:
    RecentlyUsedSceneGuid-0:
      value: 5a5757560101590a5d0c0e24427b5d44434e4c7a7b7a23677f2b4565b7b5353a
      flags: 0
    RecentlyUsedSceneGuid-1:
      value: 55535005000d500d5857547346770a45144e1e737c7e20337b7b1962bbb96568
      flags: 0
    RecentlyUsedSceneGuid-2:
      value: 00575602515708580c5e097714265b44454f197e292b71667c2b4960e6e1663c
      flags: 0
    RecentlyUsedSceneGuid-3:
      value: 5107555303035f5e0e085a2745210d44134e49737d2b77692b2a4f64b6b2653b
      flags: 0
    RecentlyUsedSceneGuid-4:
      value: 0653560256035a5f55580e761622094443154d7d787c766175714566b0b66c68
      flags: 0
    vcSharedLogLevel:
      value: 0d5e400f0650
      flags: 0
  m_VCAutomaticAdd: 1
  m_VCDebugCom: 0
  m_VCDebugCmd: 0
  m_VCDebugOut: 0
  m_SemanticMergeMode: 2
  m_DesiredImportWorkerCount: 4
  m_StandbyImportWorkerCount: 2
  m_IdleImportWorkerShutdownDelay: 60000
  m_VCShowFailedCheckout: 1
  m_VCOverwriteFailedCheckoutAssets: 1
  m_VCProjectOverlayIcons: 1
  m_VCHierarchyOverlayIcons: 1
  m_VCOtherOverlayIcons: 1
  m_VCAllowAsyncUpdate: 1
  m_ArtifactGarbageCollection: 1
